…
    ## Warning: 43 parsing failures.
    ##  row                               col           expected           actual                                                                  file
    ## 1209 CompensationAmount                a number           -                'http://people.kzoo.edu/enordmoe/math295/multipleChoiceResponses.csv'
    ## 1316 WorkToolsFrequencyKNIMECommercial 1/0/T/F/TRUE/FALSE Rarely           'http://people.kzoo.edu/enordmoe/math295/multipleChoiceResponses.csv'
    ## 1594 WorkToolsFrequencyKNIMECommercial 1/0/T/F/TRUE/FALSE Often            'http://people.kzoo.edu/enordmoe/math295/multipleChoiceResponses.csv'
    ## 2443 WorkToolsFrequencyKNIMECommercial 1/0/T/F/TRUE/FALSE Most of the time 'http://people.kzoo.edu/enordmoe/math295/multipleChoiceResponses.csv'
    ## 2466 WorkToolsFrequencyKNIMECommercial 1/0/T/F/TRUE/FALSE Most of the time 'http://people.kzoo.edu/enordmoe/math295/multipleChoiceResponses.csv'
    ## .... ................................. .................. ................ .....................................................................
    ## See problems(...) for more details.

``` r
ks_data
```

    ## # A tibble: 16,716 x 228
    ##    GenderSelect Country   Age EmploymentStatus StudentStatus LearningDataSci…
    ##    <chr>        <chr>   <dbl> <chr>            <chr>         <chr>           
    ##  1 Non-binary,… <NA>       NA Employed full-t… <NA>          <NA>            
    ##  2 Female       United…    30 Not employed, b… <NA>          <NA>            
    ##  3 Male         Canada     28 Not employed, b… <NA>          <NA>            
    ##  4 Male         United…    56 Independent con… <NA>          <NA>            
    ##  5 Male         Taiwan     38 Employed full-t… <NA>          <NA>            
    ##  6 Male         Brazil     46 Employed full-t… <NA>          <NA>            
    ##  7 Male         United…    35 Employed full-t… <NA>          <NA>            
    ##  8 Female       India      22 Employed full-t… <NA>          <NA>            
    ##  9 Female       Austra…    43 Employed full-t… <NA>          <NA>            
    ## 10 Male         Russia     33 Employed full-t… <NA>          <NA>            
    ## # … with 16,706 more rows, and 222 more variables: CodeWriter <chr>,
    ## #   CareerSwitcher <chr>, CurrentJobTitleSelect <chr>, TitleFit <chr>,
    ## #   CurrentEmployerType <chr>, MLToolNextYearSelect <chr>,
    ## #   MLMethodNextYearSelect <chr>, LanguageRecommendationSelect <chr>,
    ## #   PublicDatasetsSelect <chr>, LearningPlatformSelect <chr>,
    ## #   LearningPlatformUsefulnessArxiv <chr>,
    ## #   LearningPlatformUsefulnessBlogs <chr>,
    ## #   LearningPlatformUsefulnessCollege <chr>,
    ## #   LearningPlatformUsefulnessCompany <chr>,
…
