…
**Note:** Never put the backwards tick marks in the body of the R
chunks. I use them in the text here such as in `filter()`below so that
the commands names are clearer after you knit.

# `filter()`

**`filter()`** picks observations by their values

## Flights data examples

``` r
flights  # note the flights is a tibble - a data.frame that has been tweaked
```

    ## # A tibble: 336,776 x 19
    ##     year month   day dep_time sched_dep_time dep_delay arr_time sched_arr_time
    ##    <int> <int> <int>    <int>          <int>     <dbl>    <int>          <int>
    ##  1  2013     1     1      517            515         2      830            819
    ##  2  2013     1     1      533            529         4      850            830
    ##  3  2013     1     1      542            540         2      923            850
    ##  4  2013     1     1      544            545        -1     1004           1022
    ##  5  2013     1     1      554            600        -6      812            837
    ##  6  2013     1     1      554            558        -4      740            728
    ##  7  2013     1     1      555            600        -5      913            854
    ##  8  2013     1     1      557            600        -3      709            723
    ##  9  2013     1     1      557            600        -3      838            846
    ## 10  2013     1     1      558            600        -2      753            745
    ## # … with 336,766 more rows, and 11 more variables: arr_delay <dbl>,
    ## #   carrier <chr>, flight <int>, tailnum <chr>, origin <chr>, dest <chr>,
    ## #   air_time <dbl>, distance <dbl>, hour <dbl>, minute <dbl>, time_hour <dttm>
…
1)  How do the variable types `int` and `dbl` differ? What is `TRUE +
    TRUE`?

2)  Find all the day and time variables. How are they stored?

<!-- end list -->

``` r
filter(flights, month == 1, day == 1) 
```

    ## # A tibble: 842 x 19
    ##     year month   day dep_time sched_dep_time dep_delay arr_time sched_arr_time
    ##    <int> <int> <int>    <int>          <int>     <dbl>    <int>          <int>
    ##  1  2013     1     1      517            515         2      830            819
    ##  2  2013     1     1      533            529         4      850            830
    ##  3  2013     1     1      542            540         2      923            850
    ##  4  2013     1     1      544            545        -1     1004           1022
    ##  5  2013     1     1      554            600        -6      812            837
    ##  6  2013     1     1      554            558        -4      740            728
    ##  7  2013     1     1      555            600        -5      913            854
    ##  8  2013     1     1      557            600        -3      709            723
    ##  9  2013     1     1      557            600        -3      838            846
    ## 10  2013     1     1      558            600        -2      753            745
    ## # … with 832 more rows, and 11 more variables: arr_delay <dbl>, carrier <chr>,
    ## #   flight <int>, tailnum <chr>, origin <chr>, dest <chr>, air_time <dbl>,
    ## #   distance <dbl>, hour <dbl>, minute <dbl>, time_hour <dttm>

``` r
(jan1 <- filter(flights, month == 1, day == 1))
```

    ## # A tibble: 842 x 19
    ##     year month   day dep_time sched_dep_time dep_delay arr_time sched_arr_time
    ##    <int> <int> <int>    <int>          <int>     <dbl>    <int>          <int>
    ##  1  2013     1     1      517            515         2      830            819
    ##  2  2013     1     1      533            529         4      850            830
    ##  3  2013     1     1      542            540         2      923            850
    ##  4  2013     1     1      544            545        -1     1004           1022
    ##  5  2013     1     1      554            600        -6      812            837
    ##  6  2013     1     1      554            558        -4      740            728
    ##  7  2013     1     1      555            600        -5      913            854
    ##  8  2013     1     1      557            600        -3      709            723
    ##  9  2013     1     1      557            600        -3      838            846
    ## 10  2013     1     1      558            600        -2      753            745
    ## # … with 832 more rows, and 11 more variables: arr_delay <dbl>, carrier <chr>,
    ## #   flight <int>, tailnum <chr>, origin <chr>, dest <chr>, air_time <dbl>,
    ## #   distance <dbl>, hour <dbl>, minute <dbl>, time_hour <dttm>

3)  How do the 2 `filter` lines above differ?

<!-- end list -->

``` r
filter(flights, month == 1 | month == 2) 
```

    ## # A tibble: 51,955 x 19
    ##     year month   day dep_time sched_dep_time dep_delay arr_time sched_arr_time
    ##    <int> <int> <int>    <int>          <int>     <dbl>    <int>          <int>
    ##  1  2013     1     1      517            515         2      830            819
    ##  2  2013     1     1      533            529         4      850            830
    ##  3  2013     1     1      542            540         2      923            850
    ##  4  2013     1     1      544            545        -1     1004           1022
    ##  5  2013     1     1      554            600        -6      812            837
    ##  6  2013     1     1      554            558        -4      740            728
    ##  7  2013     1     1      555            600        -5      913            854
    ##  8  2013     1     1      557            600        -3      709            723
    ##  9  2013     1     1      557            600        -3      838            846
    ## 10  2013     1     1      558            600        -2      753            745
    ## # … with 51,945 more rows, and 11 more variables: arr_delay <dbl>,
    ## #   carrier <chr>, flight <int>, tailnum <chr>, origin <chr>, dest <chr>,
    ## #   air_time <dbl>, distance <dbl>, hour <dbl>, minute <dbl>, time_hour <dttm>

``` r
filter(flights, month == 1 | 2) 
```

    ## # A tibble: 336,776 x 19
    ##     year month   day dep_time sched_dep_time dep_delay arr_time sched_arr_time
    ##    <int> <int> <int>    <int>          <int>     <dbl>    <int>          <int>
    ##  1  2013     1     1      517            515         2      830            819
    ##  2  2013     1     1      533            529         4      850            830
    ##  3  2013     1     1      542            540         2      923            850
    ##  4  2013     1     1      544            545        -1     1004           1022
    ##  5  2013     1     1      554            600        -6      812            837
    ##  6  2013     1     1      554            558        -4      740            728
    ##  7  2013     1     1      555            600        -5      913            854
    ##  8  2013     1     1      557            600        -3      709            723
    ##  9  2013     1     1      557            600        -3      838            846
    ## 10  2013     1     1      558            600        -2      753            745
    ## # … with 336,766 more rows, and 11 more variables: arr_delay <dbl>,
    ## #   carrier <chr>, flight <int>, tailnum <chr>, origin <chr>, dest <chr>,
    ## #   air_time <dbl>, distance <dbl>, hour <dbl>, minute <dbl>, time_hour <dttm>
…
5)  Create 3 new data frames that include (a) flights going to Chicago
    Midway or O’Hare airport, (b) flights that were on time (not
    delayed), and (c) flights going to Chicago Midway or O’Hare airport
    that were on time. What percentage of flights going to either of
    these two airports (from NYC) were on time in 2013?

### `filter()` examples:

``` r
# all flights in the spring: March, April, or May
filter(flights, month == 3 | month == 4 | month == 5)
```

    ## # A tibble: 85,960 x 19
    ##     year month   day dep_time sched_dep_time dep_delay arr_time sched_arr_time
    ##    <int> <int> <int>    <int>          <int>     <dbl>    <int>          <int>
    ##  1  2013     3     1        4           2159       125      318             56
    ##  2  2013     3     1       50           2358        52      526            438
    ##  3  2013     3     1      117           2245       152      223           2354
    ##  4  2013     3     1      454            500        -6      633            648
    ##  5  2013     3     1      505            515       -10      746            810
    ##  6  2013     3     1      521            530        -9      813            827
    ##  7  2013     3     1      537            540        -3      856            850
    ##  8  2013     3     1      541            545        -4     1014           1023
    ##  9  2013     3     1      549            600       -11      639            703
    ## 10  2013     3     1      550            600       -10      747            801
    ## # … with 85,950 more rows, and 11 more variables: arr_delay <dbl>,
    ## #   carrier <chr>, flight <int>, tailnum <chr>, origin <chr>, dest <chr>,
    ## #   air_time <dbl>, distance <dbl>, hour <dbl>, minute <dbl>, time_hour <dttm>

``` r
filter(flights, month %in% c(3, 4, 5)) 
```

    ## # A tibble: 85,960 x 19
    ##     year month   day dep_time sched_dep_time dep_delay arr_time sched_arr_time
    ##    <int> <int> <int>    <int>          <int>     <dbl>    <int>          <int>
    ##  1  2013     3     1        4           2159       125      318             56
    ##  2  2013     3     1       50           2358        52      526            438
    ##  3  2013     3     1      117           2245       152      223           2354
    ##  4  2013     3     1      454            500        -6      633            648
    ##  5  2013     3     1      505            515       -10      746            810
    ##  6  2013     3     1      521            530        -9      813            827
    ##  7  2013     3     1      537            540        -3      856            850
    ##  8  2013     3     1      541            545        -4     1014           1023
    ##  9  2013     3     1      549            600       -11      639            703
    ## 10  2013     3     1      550            600       -10      747            801
    ## # … with 85,950 more rows, and 11 more variables: arr_delay <dbl>,
    ## #   carrier <chr>, flight <int>, tailnum <chr>, origin <chr>, dest <chr>,
    ## #   air_time <dbl>, distance <dbl>, hour <dbl>, minute <dbl>, time_hour <dttm>

``` r
#  find all flights that left no more than a half hour after scheduled time
filter(flights, dep_delay <= 30)
```

    ## # A tibble: 280,230 x 19
    ##     year month   day dep_time sched_dep_time dep_delay arr_time sched_arr_time
    ##    <int> <int> <int>    <int>          <int>     <dbl>    <int>          <int>
    ##  1  2013     1     1      517            515         2      830            819
    ##  2  2013     1     1      533            529         4      850            830
    ##  3  2013     1     1      542            540         2      923            850
    ##  4  2013     1     1      544            545        -1     1004           1022
    ##  5  2013     1     1      554            600        -6      812            837
    ##  6  2013     1     1      554            558        -4      740            728
    ##  7  2013     1     1      555            600        -5      913            854
    ##  8  2013     1     1      557            600        -3      709            723
    ##  9  2013     1     1      557            600        -3      838            846
    ## 10  2013     1     1      558            600        -2      753            745
    ## # … with 280,220 more rows, and 11 more variables: arr_delay <dbl>,
    ## #   carrier <chr>, flight <int>, tailnum <chr>, origin <chr>, dest <chr>,
    ## #   air_time <dbl>, distance <dbl>, hour <dbl>, minute <dbl>, time_hour <dttm>

``` r
#  find all flights that left no more than a half hour after scheduled time and arrived early
filter(flights, dep_delay <= 30 , arr_delay < 0)  
```

    ## # A tibble: 188,536 x 19
    ##     year month   day dep_time sched_dep_time dep_delay arr_time sched_arr_time
    ##    <int> <int> <int>    <int>          <int>     <dbl>    <int>          <int>
    ##  1  2013     1     1      544            545        -1     1004           1022
    ##  2  2013     1     1      554            600        -6      812            837
    ##  3  2013     1     1      557            600        -3      709            723
    ##  4  2013     1     1      557            600        -3      838            846
    ##  5  2013     1     1      558            600        -2      849            851
    ##  6  2013     1     1      558            600        -2      853            856
    ##  7  2013     1     1      558            600        -2      923            937
    ##  8  2013     1     1      559            559         0      702            706
    ##  9  2013     1     1      559            600        -1      854            902
    ## 10  2013     1     1      600            600         0      851            858
    ## # … with 188,526 more rows, and 11 more variables: arr_delay <dbl>,
    ## #   carrier <chr>, flight <int>, tailnum <chr>, origin <chr>, dest <chr>,
    ## #   air_time <dbl>, distance <dbl>, hour <dbl>, minute <dbl>, time_hour <dttm>

``` r
# two ways to find all flights not delayed by more than a half hour at either end
filter(flights, arr_delay <= 30, dep_delay <= 30)
```

    ## # A tibble: 267,842 x 19
    ##     year month   day dep_time sched_dep_time dep_delay arr_time sched_arr_time
    ##    <int> <int> <int>    <int>          <int>     <dbl>    <int>          <int>
    ##  1  2013     1     1      517            515         2      830            819
    ##  2  2013     1     1      533            529         4      850            830
    ##  3  2013     1     1      544            545        -1     1004           1022
    ##  4  2013     1     1      554            600        -6      812            837
    ##  5  2013     1     1      554            558        -4      740            728
    ##  6  2013     1     1      555            600        -5      913            854
    ##  7  2013     1     1      557            600        -3      709            723
    ##  8  2013     1     1      557            600        -3      838            846
    ##  9  2013     1     1      558            600        -2      753            745
    ## 10  2013     1     1      558            600        -2      849            851
    ## # … with 267,832 more rows, and 11 more variables: arr_delay <dbl>,
    ## #   carrier <chr>, flight <int>, tailnum <chr>, origin <chr>, dest <chr>,
    ## #   air_time <dbl>, distance <dbl>, hour <dbl>, minute <dbl>, time_hour <dttm>

``` r
filter(flights, !(arr_delay > 30 | dep_delay > 30))
```

    ## # A tibble: 267,842 x 19
    ##     year month   day dep_time sched_dep_time dep_delay arr_time sched_arr_time
    ##    <int> <int> <int>    <int>          <int>     <dbl>    <int>          <int>
    ##  1  2013     1     1      517            515         2      830            819
    ##  2  2013     1     1      533            529         4      850            830
    ##  3  2013     1     1      544            545        -1     1004           1022
    ##  4  2013     1     1      554            600        -6      812            837
    ##  5  2013     1     1      554            558        -4      740            728
    ##  6  2013     1     1      555            600        -5      913            854
    ##  7  2013     1     1      557            600        -3      709            723
    ##  8  2013     1     1      557            600        -3      838            846
    ##  9  2013     1     1      558            600        -2      753            745
    ## 10  2013     1     1      558            600        -2      849            851
    ## # … with 267,832 more rows, and 11 more variables: arr_delay <dbl>,
    ## #   carrier <chr>, flight <int>, tailnum <chr>, origin <chr>, dest <chr>,
    ## #   air_time <dbl>, distance <dbl>, hour <dbl>, minute <dbl>, time_hour <dttm>
…
# `arrange()`

**`arrange()`** to reorder rows of data

## More flights data examples

``` r
# order by year, then month within year, then day within month
#   2nd column breaks ties in the 1st, etc.
arrange(flights, year, month, day)
```

    ## # A tibble: 336,776 x 19
    ##     year month   day dep_time sched_dep_time dep_delay arr_time sched_arr_time
    ##    <int> <int> <int>    <int>          <int>     <dbl>    <int>          <int>
    ##  1  2013     1     1      517            515         2      830            819
    ##  2  2013     1     1      533            529         4      850            830
    ##  3  2013     1     1      542            540         2      923            850
    ##  4  2013     1     1      544            545        -1     1004           1022
    ##  5  2013     1     1      554            600        -6      812            837
    ##  6  2013     1     1      554            558        -4      740            728
    ##  7  2013     1     1      555            600        -5      913            854
    ##  8  2013     1     1      557            600        -3      709            723
    ##  9  2013     1     1      557            600        -3      838            846
    ## 10  2013     1     1      558            600        -2      753            745
    ## # … with 336,766 more rows, and 11 more variables: arr_delay <dbl>,
    ## #   carrier <chr>, flight <int>, tailnum <chr>, origin <chr>, dest <chr>,
    ## #   air_time <dbl>, distance <dbl>, hour <dbl>, minute <dbl>, time_hour <dttm>

``` r
# get earliest departure time
arrange(flights, dep_time) 
```

    ## # A tibble: 336,776 x 19
    ##     year month   day dep_time sched_dep_time dep_delay arr_time sched_arr_time
    ##    <int> <int> <int>    <int>          <int>     <dbl>    <int>          <int>
    ##  1  2013     1    13        1           2249        72      108           2357
    ##  2  2013     1    31        1           2100       181      124           2225
    ##  3  2013    11    13        1           2359         2      442            440
    ##  4  2013    12    16        1           2359         2      447            437
    ##  5  2013    12    20        1           2359         2      430            440
    ##  6  2013    12    26        1           2359         2      437            440
    ##  7  2013    12    30        1           2359         2      441            437
    ##  8  2013     2    11        1           2100       181      111           2225
    ##  9  2013     2    24        1           2245        76      121           2354
    ## 10  2013     3     8        1           2355         6      431            440
    ## # … with 336,766 more rows, and 11 more variables: arr_delay <dbl>,
    ## #   carrier <chr>, flight <int>, tailnum <chr>, origin <chr>, dest <chr>,
    ## #   air_time <dbl>, distance <dbl>, hour <dbl>, minute <dbl>, time_hour <dttm>
…
